{
    "name": "Customers",
    "alias": "customers",
    "description": "",
    "keywords": [],
    "active": 1,
    "order": 0,
    "providers": [
        "Modules\\Customers\\Providers\\CustomersServiceProvider"
    ],
    "aliases":{},
    "files": [
        "start.php"
    ]
}