{
    "name": "Accountants",
    "alias": "accountants",
    "description": "",
    "keywords": [],
    "active": 1,
    "order": 0,
    "providers": [
        "Modules\\Accountants\\Providers\\AccountantsServiceProvider"
    ],
    "aliases":{},
    "files": [
        "start.php"
    ]
}